<?xml version="1.0" encoding="UTF-8" standalone="no"?>
<!DOCTYPE svg PUBLIC "-//W3C//DTD SVG 1.1//EN" "http://www.w3.org/Graphics/SVG/1.1/DTD/svg11.dtd" >
<svg xmlns="http://www.w3.org/2000/svg"
><metadata
></metadata
><defs
><font horiz-adv-x="1072"
><font-face font-family="Alpaca Scarlett Demo" units-per-em="2048" ascent="1800" descent="-770"
></font-face
><missing-glyph horiz-adv-x="1024" d=""
></missing-glyph
><glyph unicode=" " horiz-adv-x="508" d=""
></glyph
><glyph unicode="!" horiz-adv-x="344" d="M60 1636H284V426H60V1636ZM60 247H284V0H60V247Z"
></glyph
><glyph unicode="&quot;" horiz-adv-x="606" d="M278 1636V1270H60V1636H278ZM557 1636V1270H339V1636H557Z"
></glyph
><glyph unicode="#" horiz-adv-x="1021" d="M169 502V711H60V931H169V1102H389V931H632V1102H852V931H961V711H852V502H961V282H852V111H632V282H389V111H169V282H60V502H169ZM389 711V502H632V711H389Z"
></glyph
><glyph unicode="$" horiz-adv-x="1127" d="M672 251Q744 277 792 324Q843 375 843 430Q843 508 812 555Q773 617 672 647V251ZM276 1104Q276 1073 303 1028Q347 949 455 912V1390Q345 1354 300 1267Q276 1195 276 1104ZM672 870Q1059 785 1059 430Q1059 282 941 166Q831 60 672 26V-102H455V24Q296 57 191 169Q77 291 77 463H293Q293 306 455 249V687Q255 733 149 867Q60 980 60 1104Q60 1295 150 1433Q258 1580 455 1613V1774H672V1608Q850 1570 958 1433Q1067 1295 1067 1104H851Q851 1195 810 1267Q763 1351 672 1384V870Z"
></glyph
><glyph unicode="%" horiz-adv-x="1378" d="M1303 1636L302 0H60L1061 1636H1303ZM376 1426Q333 1426 300 1378Q268 1330 268 1265Q268 1201 300 1152Q333 1104 376 1104Q419 1104 452 1152Q485 1201 485 1265Q485 1330 452 1378Q419 1426 376 1426ZM376 896Q245 896 153 1004Q60 1112 60 1265Q60 1418 153 1526Q245 1634 376 1634Q507 1634 600 1526Q692 1418 692 1265Q692 1112 600 1004Q507 896 376 896ZM1002 530Q959 530 926 482Q894 434 894 369Q894 305 926 256Q959 208 1002 208Q1045 208 1078 256Q1111 305 1111 369Q1111 434 1078 482Q1045 530 1002 530ZM1002 0Q871 0 779 108Q686 216 686 369Q686 522 779 630Q871 738 1002 738Q1133 738 1226 630Q1318 522 1318 369Q1318 216 1226 108Q1133 0 1002 0Z"
></glyph
><glyph unicode="&amp;" horiz-adv-x="1210" d="M260 453Q260 370 332 302Q402 235 511 211V695Q402 671 332 605Q260 537 260 453ZM260 1183Q260 1100 332 1032Q402 965 511 941V1425Q402 1401 332 1334Q260 1266 260 1183ZM736 713V212Q827 231 893 282Q960 334 980 401L1150 303Q1104 182 994 99Q883 15 736 -7V-122H511V-7Q319 22 195 150Q60 279 60 453Q60 679 267 818Q60 957 60 1183Q60 1357 195 1486Q319 1614 511 1643V1758H736V1643Q883 1621 994 1537Q1104 1454 1150 1333L980 1235Q960 1302 893 1354Q827 1405 736 1424V928H883V713H736Z"
></glyph
><glyph unicode="&#39;" horiz-adv-x="283" d="M248 1637V1272H50V1637H248Z"
></glyph
><glyph unicode="(" horiz-adv-x="849" d="M789 -201Q446 -188 253 82Q60 351 60 819Q60 1374 297 1631Q479 1829 789 1839V1621Q567 1613 445 1474Q274 1280 274 819Q274 515 364 317Q492 33 789 17V-201Z"
></glyph
><glyph unicode=")" horiz-adv-x="849" d="M60 1839Q370 1829 552 1631Q789 1374 789 819Q789 351 596 82Q403 -188 60 -201V17Q356 33 485 317Q575 515 575 819Q575 1280 404 1474Q282 1613 60 1621V1839Z"
></glyph
><glyph unicode="*" horiz-adv-x="553" d="M340 1634V1508L446 1550L493 1431L386 1389L468 1294L372 1210L276 1320L181 1210L84 1294L167 1389L60 1431L107 1550L213 1508V1634H340Z"
></glyph
><glyph unicode="+" horiz-adv-x="947" d="M584 695H887V474H584V171H363V474H60V695H363V998H584V695Z"
></glyph
><glyph unicode="," horiz-adv-x="329" d="M185 -194L25 -134L87 32Q80 38 74 45Q40 84 44 134Q48 185 86 217Q125 251 175 247Q226 244 259 206Q292 168 288 117Q286 73 185 -194Z"
></glyph
><glyph unicode="-" horiz-adv-x="739" d="M58 629H698V408H58V629Z"
></glyph
><glyph unicode="." horiz-adv-x="352" d="M315 82T274 41Q234 0 177 0Q119 0 78 41Q37 82 37 139Q37 197 78 237Q119 278 177 278Q234 278 274 237Q315 197 315 139Q315 82 274 41Z"
></glyph
><glyph unicode="/" horiz-adv-x="703" d="M60 0L420 1636H643L283 0H60Z"
></glyph
><glyph unicode="0" horiz-adv-x="1357" d="M510 1404T417 1308Q282 1169 282 818Q282 572 358 425Q457 233 680 233Q903 233 1002 425Q1078 572 1078 818Q1078 1169 943 1308Q850 1404 680 1404Q510 1404 417 1308ZM384 0T217 217Q50 434 50 818Q50 1290 277 1494Q434 1636 680 1636Q926 1636 1083 1494Q1310 1290 1310 818Q1310 434 1143 217Q976 0 680 0Q384 0 217 217Z"
></glyph
><glyph unicode="1" horiz-adv-x="641" d="M582 1636V0H359V1276L207 1126L50 1286L406 1636H582Z"
></glyph
><glyph unicode="2" horiz-adv-x="1160" d="M1117 0H89L99 120Q106 223 166 351Q283 599 535 748Q782 893 849 985Q894 1047 894 1171Q894 1277 828 1340Q753 1413 592 1413Q576 1413 559 1412Q383 1405 312 1254Q273 1172 273 1080L50 1078V1085Q50 1269 149 1420Q284 1624 550 1635Q571 1636 592 1636Q842 1636 983 1501Q1117 1372 1117 1171Q1117 974 1032 857Q937 725 648 555Q436 431 353 223H1117V0Z"
></glyph
><glyph unicode="3" horiz-adv-x="1212" d="M603 1017Q707 1017 780 1081Q846 1138 846 1216Q846 1294 780 1352Q707 1415 603 1415Q498 1415 426 1352Q360 1294 360 1216H138Q138 1395 280 1518Q415 1636 603 1636Q791 1636 926 1518Q1067 1395 1067 1216Q1067 1041 931 919Q961 898 989 873Q1156 723 1156 509Q1156 294 989 145Q829 0 603 0Q377 0 216 145Q50 294 50 509H271Q271 393 364 310Q462 221 603 221Q744 221 842 310Q935 393 935 509Q935 624 842 708Q744 796 603 796H416V1017H603Z"
></glyph
><glyph unicode="4" horiz-adv-x="1064" d="M1004 0H776V514H60V1636H288V742H776V1636H1004V0Z"
></glyph
><glyph unicode="5" horiz-adv-x="1272" d="M343 0T181 203Q60 356 60 549H173L287 550Q288 462 336 380Q426 226 636 226Q840 226 921 332Q982 412 985 614L636 865H60V1636H1212V1409H293V1092H735L1212 743Q1212 387 1137 249Q1003 0 636 0Q343 0 181 203Z"
></glyph
><glyph unicode="6" horiz-adv-x="1368" d="M685 228Q854 228 974 330Q1094 433 1094 578Q1094 723 974 826Q854 929 685 929Q517 929 397 826Q277 723 277 578Q277 433 397 330Q517 228 685 228ZM685 1156Q948 1156 1135 986Q1321 817 1321 578Q1321 339 1135 170Q948 0 685 0Q423 0 236 170Q50 339 50 578V655Q50 945 83 1086Q125 1268 192 1371Q274 1498 398 1565Q529 1636 697 1636Q865 1636 996 1565Q1120 1498 1202 1371L1012 1248Q961 1326 887 1366Q807 1409 697 1409Q587 1409 507 1366Q433 1326 382 1248Q330 1168 304 1052Q303 1050 302 1045Q301 1039 301 1037Q471 1156 685 1156Z"
></glyph
><glyph unicode="7" horiz-adv-x="1330" d="M185 0L886 1419H91V1636H1270L464 0H185Z"
></glyph
><glyph unicode="8" horiz-adv-x="1426" d="M588 1401T500 1342Q416 1287 416 1219Q416 1151 500 1097Q588 1038 715 1038Q841 1038 930 1097Q1013 1151 1013 1219Q1013 1287 930 1342Q841 1401 715 1401Q588 1401 500 1342ZM540 786T413 704Q285 622 285 510Q285 399 413 317Q540 235 715 235Q889 235 1016 317Q1144 399 1144 510Q1144 622 1016 704Q889 786 715 786Q540 786 413 704ZM328 929Q181 1049 181 1220Q181 1394 336 1515Q490 1636 715 1636Q939 1636 1093 1515Q1248 1394 1248 1220Q1248 1049 1101 929Q1146 905 1187 873Q1379 725 1379 511Q1379 295 1187 148Q994 0 715 0Q435 0 242 148Q50 295 50 511Q50 725 242 873Q283 905 328 929Z"
></glyph
><glyph unicode="9" horiz-adv-x="1368" d="M686 708Q854 708 974 811Q1094 914 1094 1059Q1094 1204 974 1306Q854 1409 686 1409Q517 1409 397 1306Q277 1204 277 1059Q277 914 397 811Q517 708 686 708ZM1321 999Q1321 691 1288 551Q1246 369 1179 265Q1097 139 973 71Q842 0 674 0Q506 0 375 71Q251 139 169 265L359 389Q410 311 484 271Q564 227 674 227Q784 227 864 271Q938 311 989 389Q1041 469 1067 584Q1068 587 1069 592Q1070 597 1070 599Q900 481 686 481Q423 481 236 650Q50 820 50 1059Q50 1298 236 1467Q423 1636 686 1636Q948 1636 1135 1467Q1321 1298 1321 1059V999Z"
></glyph
><glyph unicode=":" horiz-adv-x="344" d="M284 643T251 610Q218 577 172 577Q126 577 93 610Q60 643 60 689Q60 735 93 768Q126 801 172 801Q218 801 251 768Q284 735 284 689Q284 643 251 610ZM284 289T251 256Q218 223 172 223Q126 223 93 256Q60 289 60 335Q60 381 93 414Q126 447 172 447Q218 447 251 414Q284 381 284 335Q284 289 251 256Z"
></glyph
><glyph unicode=";" horiz-adv-x="344" d="M284 643T251 610Q218 577 172 577Q126 577 93 610Q60 643 60 689Q60 735 93 768Q126 801 172 801Q218 801 251 768Q284 735 284 689Q284 643 251 610ZM281 422V157H63V422H281Z"
></glyph
><glyph unicode="&lt;" horiz-adv-x="635" d="M474 780L575 576L407 464L575 351L474 147L60 464L474 780Z"
></glyph
><glyph unicode="=" horiz-adv-x="826" d="M60 477H766V256H60V477ZM60 872H766V651H60V872Z"
></glyph
><glyph unicode="&gt;" horiz-adv-x="635" d="M575 464L161 147L60 351L228 464L60 576L161 780L575 464Z"
></glyph
><glyph unicode="?" horiz-adv-x="1212" d="M668 64T636 32Q604 0 558 0Q513 0 480 32Q448 64 448 110Q448 156 480 188Q513 220 558 220Q604 220 636 188Q668 156 668 110Q668 64 636 32ZM988 1493Q1152 1345 1152 1134Q1152 922 988 774Q846 647 669 633V379H448V850H623Q745 850 842 937Q933 1019 933 1134Q933 1248 842 1330Q745 1417 606 1417Q467 1417 370 1330Q279 1248 279 1134H60Q60 1345 224 1493Q383 1636 606 1636Q829 1636 988 1493Z"
></glyph
><glyph unicode="@" horiz-adv-x="2594" d="M1785 1227Q1815 1214 1815 1191L1810 1161V1151L1845 1146H1860Q1889 1146 1916 1207H1936Q1948 1207 1961 1131L1986 1126H1996L2042 1166H2047Q2055 1166 2067 1146V1141L2062 1111Q2069 1091 2077 1091H2102Q2102 1117 2133 1126H2143Q2202 1074 2203 1070Q2203 1058 2183 1015Q2191 992 2213 980H2233Q2281 1015 2314 1015L2329 990Q2329 978 2284 929V909Q2289 909 2299 904Q2339 924 2365 924H2370Q2380 924 2380 909H2390Q2400 909 2400 919V924Q2349 937 2349 949L2359 954H2380Q2380 947 2405 934Q2405 919 2415 919L2425 924L2430 914Q2430 909 2425 909L2430 899Q2430 894 2425 894L2430 884V874L2390 823H2385L2370 833H2365Q2354 793 2354 783V778Q2360 727 2385 727Q2390 727 2390 733Q2470 719 2470 697V682Q2425 645 2425 637Q2430 627 2430 622H2450Q2489 622 2496 601Q2496 575 2480 571L2420 581Q2420 576 2415 576Q2420 511 2435 511H2460Q2486 511 2486 521Q2541 513 2541 496V480Q2541 473 2526 465H2511Q2501 465 2460 475Q2400 475 2400 415H2405Q2443 410 2455 405L2486 410H2491Q2518 410 2526 390Q2521 369 2506 369Q2499 369 2455 374Q2435 353 2435 334Q2442 334 2465 304V289Q2465 279 2455 279H2450Q2385 294 2365 294Q2344 255 2344 243Q2344 231 2410 153V143Q2402 122 2395 122Q2377 122 2329 178L2309 183Q2309 164 2243 158L2198 117L2254 57V47L2238 37H2223Q2196 37 2163 77Q2153 82 2148 82Q2107 73 2107 62V57Q2117 21 2117 16Q2117 9 2102 1H2077Q2028 52 2022 52Q2009 52 2006 32Q2017 -1 2017 -14V-19Q2017 -26 2001 -34Q1998 -34 1941 16Q1928 -16 1916 -19H1911Q1884 -19 1845 42H1840Q1807 -14 1800 -14H1785Q1775 -14 1759 47Q1741 62 1724 62Q1716 62 1674 6H1664Q1656 6 1648 27Q1659 47 1659 62Q1659 83 1613 92L1608 102L1553 62Q1537 80 1537 97Q1553 122 1553 137Q1543 150 1543 158Q1524 158 1482 137Q1457 146 1457 163L1477 213Q1462 229 1462 274Q1330 143 1321 143Q1292 166 1164 178Q1164 192 1109 203Q1077 277 1053 279Q1043 291 1043 304H1038V168Q1038 158 1028 158H640Q630 158 630 168V319L458 153H453V309L307 168Q236 168 131 284Q80 349 70 460Q70 665 287 753L373 768Q379 764 453 758V1010Q455 1020 463 1020H675V511H680L1033 859H1038V768H1119V1010Q1120 1020 1129 1020H1336Q1346 1020 1346 970Q1351 970 1351 975Q1355 975 1421 954Q1429 954 1457 990Q1435 1029 1421 1035H1411Q1411 1000 1391 1000H1381Q1371 1000 1371 1010V1030Q1371 1063 1416 1101H1437Q1444 1101 1472 1045Q1492 1044 1492 1035Q1512 1043 1512 1050V1060Q1482 1106 1482 1121V1126Q1482 1138 1502 1141Q1512 1141 1558 1086Q1603 1097 1603 1141Q1607 1176 1623 1176H1638L1684 1141H1749Q1763 1141 1774 1222L1785 1227ZM1280 1156H1285Q1313 1156 1336 1121Q1336 1111 1326 1111Q1291 1125 1280 1146V1156ZM1406 677H1401L1356 717H1306Q1295 717 1295 727V970H1164V727Q1164 717 1154 717H1084Q1045 717 998 702L993 712V743H988Q981 743 862 617V208H983Q993 208 993 218V501Q1007 586 1079 586H1154Q1164 585 1164 576V496Q1164 253 1321 203L1416 304Q1295 330 1295 425V576Q1297 586 1306 586H1391Q1400 586 1421 450Q1506 247 1664 168Q1764 117 1875 117H1901Q1936 117 1956 127L1966 122Q2175 195 2238 294Q2349 441 2349 627L2329 652V662L2339 677V682L2329 697Q2334 707 2334 712Q2324 712 2324 722Q2324 727 2329 727Q2263 917 2102 1015Q1983 1070 1865 1070Q1757 1070 1714 1020Q1697 1007 1603 980Q1501 902 1487 833Q1442 779 1406 677ZM504 970V692L499 682Q442 712 393 712H357Q198 712 131 521Q125 501 125 480V445Q125 298 292 228Q394 329 403 329V339L393 334H383Q247 350 247 465Q271 591 373 591H378Q504 567 504 465V269Q511 269 625 390V970H504ZM1820 964Q1830 963 1830 954Q1830 927 1774 909L1769 899L1780 894Q1789 899 1795 899Q1810 874 1810 859V854Q1810 846 1795 838L1780 849H1774V838Q1780 823 1805 823L1815 828Q1838 819 1840 808V753Q1808 682 1719 682Q1689 682 1623 773V798Q1623 805 1638 813L1633 833Q1633 884 1709 934H1719Q1724 934 1724 929Q1803 964 1820 964ZM1870 959H1890Q1901 958 1901 949H1870V959ZM1346 949V879Q1363 879 1371 874Q1380 879 1391 879Q1391 893 1351 949H1346ZM1921 949Q2000 929 2001 914L2027 919Q2087 898 2138 828V823L2133 813Q2173 798 2173 763Q2193 732 2193 722Q2175 566 2143 566Q2074 537 2006 531Q2006 506 1956 506Q1941 525 1941 536H1931Q1931 521 1921 521H1875Q1868 521 1860 536Q1870 541 1875 541V546L1865 561L1855 556Q1820 556 1820 591Q1810 591 1810 601V606Q1823 631 1830 632L1855 627Q1855 645 1941 717H1956Q1988 707 2001 707Q2006 716 2006 727Q1980 743 1961 743Q1961 764 1986 793Q1986 799 1971 843V854L1986 874V884H1971Q1944 884 1931 914Q1916 914 1906 934Q1913 934 1921 949ZM1845 944Q1896 940 1896 929Q1890 929 1890 924Q1880 929 1845 934V944ZM1971 632Q1973 622 1981 622Q1989 647 2017 647Q2017 657 2006 657Q1980 632 1971 632ZM1800 586Q1807 556 1845 536Q1850 527 1850 516Q1838 506 1830 506L1820 511Q1776 497 1684 490Q1684 485 1679 485Q1656 495 1653 506Q1680 531 1694 531L1714 526Q1732 526 1769 581L1800 586ZM680 435V213H806V561Q799 561 680 435ZM297 465Q297 396 383 385Q404 395 453 405V440Q453 536 383 536Q383 541 378 541Q297 524 297 465ZM1053 506V496H1058V506H1053ZM2143 496Q2153 494 2153 485Q2153 475 2143 475Q2133 475 2133 485Q2134 496 2143 496ZM1643 490H1648V485Q1643 476 1643 470H1648Q1657 475 1669 475H1689Q1709 465 1709 460Q1732 475 1739 475Q1855 466 1855 445V440H1860L1875 450H1890L1936 420Q1926 415 1921 415Q1921 398 1936 380Q1933 354 1911 354V349L1931 344Q1946 344 1946 359Q1973 359 1986 334V324Q1986 317 1971 309H1961L1936 324Q1936 313 1931 304Q1961 291 1961 264Q1949 264 1921 248Q1864 272 1855 299L1845 294Q1785 321 1785 354Q1790 354 1790 359L1800 354H1810Q1800 371 1800 380H1795L1769 364Q1714 401 1714 435Q1699 435 1699 445Q1704 445 1704 450Q1691 450 1664 460Q1664 450 1653 450Q1644 455 1638 455Q1638 445 1628 445H1608Q1608 467 1638 470L1633 480Q1635 490 1643 490ZM2122 465H2127Q2138 464 2138 455V450Q2138 435 2117 395Q2117 387 2143 344Q2134 319 2112 319L2087 334Q2087 272 1991 264L1971 274Q1971 307 2001 314L2006 334Q2006 361 1946 374L1941 385V400Q1941 405 1971 430H1976Q1980 430 2001 395L2012 400L2006 410Q2006 415 2027 425L2052 420H2067Q2071 420 2122 465ZM1603 445H1608L1603 435Q1618 435 1618 425V420Q1618 413 1603 405Q1583 412 1583 420Q1596 445 1603 445ZM1038 405V400H1048V405H1038ZM1628 405L1648 354Q1643 309 1608 309Q1568 313 1568 349H1578V354L1568 369V385Q1568 397 1588 400L1613 385H1618Q1618 405 1628 405ZM1053 390V380H1063Q1063 390 1053 390ZM2042 390V374H2052V390H2042ZM2102 339H2122V349H2112Q2102 348 2102 339ZM1840 339V329Q1842 319 1850 319Q1860 324 1865 324V334L1855 329L1840 339ZM1053 329V319H1063Q1063 329 1053 329ZM1477 173Q1482 163 1482 158H1487V173H1477ZM1154 163H1169Q1179 161 1179 153Q1179 145 1164 137Q1154 137 1154 148V163ZM1593 153V143H1598V153H1593ZM1598 127V122H1608V127H1598ZM1618 122V117H1633V122H1618ZM1563 112V107H1573V112H1563ZM1548 102L1553 92L1548 82H1553Q1561 87 1573 87Q1573 99 1548 102ZM1825 72V62H1830V72H1825ZM1664 47V42Q1669 32 1669 27Q1664 27 1664 21H1669L1684 32Q1679 41 1679 47H1664Z"
></glyph
><glyph unicode="A" horiz-adv-x="1396" d="M931 429L690 1030L451 429H931ZM1022 203H360L279 0H35L690 1639L1346 0H1103L1022 203Z"
></glyph
><glyph unicode="B" horiz-adv-x="1096" d="M281 929H482Q585 929 657 1000Q730 1072 730 1172Q730 1273 659 1344Q587 1415 487 1415H281V929ZM281 221H572Q672 221 744 292Q815 364 815 464Q815 565 744 637Q672 708 572 708H281V221ZM60 0V1636H487Q679 1636 815 1500Q951 1364 951 1172Q951 988 824 855Q922 791 978 689Q1036 585 1036 464Q1036 272 900 136Q764 0 572 0H60Z"
></glyph
><glyph unicode="C" horiz-adv-x="1499" d="M1289 1264Q1212 1336 1114 1378Q1001 1425 878 1425Q755 1425 642 1378Q533 1331 449 1247Q365 1163 319 1055Q272 941 272 819Q272 695 319 582Q365 473 449 390Q533 305 642 259Q755 212 878 212Q1001 212 1114 259Q1211 301 1289 372L1439 222Q1331 122 1196 64Q1044 0 878 0Q712 0 559 64Q413 126 299 239Q186 353 124 500Q60 652 60 819Q60 985 124 1137Q186 1284 299 1397Q413 1510 559 1572Q712 1636 878 1636Q1044 1636 1196 1572Q1332 1515 1439 1414L1289 1264Z"
></glyph
><glyph unicode="D" horiz-adv-x="1310" d="M286 227H432Q552 227 662 273Q768 318 850 400Q932 482 978 588Q1024 698 1024 819Q1024 939 978 1049Q932 1155 850 1236Q768 1318 662 1363Q552 1410 432 1410H286V227ZM60 0V1636H432Q599 1636 750 1572Q897 1510 1011 1396Q1123 1284 1185 1136Q1250 985 1250 819Q1250 651 1185 500Q1123 353 1011 240Q897 127 750 65Q599 0 432 0H60Z"
></glyph
><glyph unicode="E" horiz-adv-x="1066" d="M284 1413V653H841V429H284V224H1006V0H60V1636H1006V1413H284Z"
></glyph
><glyph unicode="F" horiz-adv-x="1066" d="M284 1413V653H841V429H284V0H60V1636H1006V1413H284Z"
></glyph
><glyph unicode="G" horiz-adv-x="1757" d="M1336 139Q1270 95 1197 64Q1123 32 1044 16Q962 0 879 0Q796 0 713 16Q634 32 560 64Q486 95 420 139Q355 184 300 239Q244 295 200 360Q155 426 124 499Q93 574 76 653Q60 734 60 818Q60 901 76 983Q93 1062 124 1136Q155 1209 200 1275Q244 1340 300 1397Q355 1452 420 1497Q486 1541 560 1571Q634 1603 713 1619Q795 1636 879 1636Q962 1636 1044 1619Q1123 1603 1197 1571Q1271 1541 1336 1497Q1398 1454 1451 1402L1302 1253Q1263 1291 1218 1321Q1169 1354 1114 1377Q1059 1401 1001 1412Q940 1425 879 1425Q818 1425 756 1412Q697 1401 643 1377Q588 1354 539 1321Q490 1288 449 1247Q407 1205 375 1157Q342 1108 320 1054Q296 999 284 940Q272 880 272 818Q272 756 284 695Q296 637 320 582Q342 528 375 479Q407 430 449 389Q490 347 539 315Q588 281 643 259Q697 235 756 224Q818 211 879 211Q940 211 1001 224Q1059 235 1114 259Q1169 281 1218 315Q1267 347 1307 389Q1349 430 1382 479Q1415 528 1437 582Q1461 637 1473 695L1477 712H1049V924H1697V818Q1697 734 1680 653Q1664 574 1633 499Q1602 426 1557 360Q1513 295 1457 239Q1402 184 1336 139Z"
></glyph
><glyph unicode="H" horiz-adv-x="1218" d="M1158 1636V0H936V429H283V0H60V1636H283V653H936V1636H1158Z"
></glyph
><glyph unicode="I" horiz-adv-x="343" d="M283 0H60V1636H283V0Z"
></glyph
><glyph unicode="J" horiz-adv-x="926" d="M60 224Q301 224 473 394Q643 565 643 807V1636H866V807Q866 472 630 237Q394 0 60 0V224Z"
></glyph
><glyph unicode="K" horiz-adv-x="1238" d="M1018 0L283 890V0H60V1636H283V1108L811 1636H1126L486 996L1307 0H1018Z"
></glyph
><glyph unicode="L" horiz-adv-x="1076" d="M1016 0H66V1636H289V224H1016V0Z"
></glyph
><glyph unicode="M" horiz-adv-x="1657" d="M829 0L280 851V0H60V1636L829 459L1597 1636V0H1377V851L829 0Z"
></glyph
><glyph unicode="N" horiz-adv-x="1309" d="M1249 0L281 1070V0H60V1636L1029 583V1636H1249V0Z"
></glyph
><glyph unicode="O" horiz-adv-x="1756" d="M629 1422T452 1245Q276 1068 276 819Q276 569 452 392Q629 216 879 216Q1128 216 1305 392Q1482 569 1482 819Q1482 1068 1305 1245Q1128 1422 879 1422Q629 1422 452 1245ZM540 0T300 240Q60 480 60 819Q60 1156 300 1397Q540 1636 879 1636Q1216 1636 1457 1397Q1696 1156 1696 819Q1696 480 1457 240Q1216 0 879 0Q540 0 300 240Z"
></glyph
><glyph unicode="P" horiz-adv-x="1150" d="M291 596H455Q623 596 741 714Q860 833 860 1001Q860 1168 741 1286Q623 1405 455 1405H291V596ZM291 0H60V1636H455Q718 1636 904 1450Q1090 1264 1090 1001Q1090 737 904 551Q718 365 455 365H291V0Z"
></glyph
><glyph unicode="Q" horiz-adv-x="1768" d="M878 215Q1064 215 1218 321L1036 502L1194 660L1375 478Q1481 632 1481 818Q1481 1067 1304 1244Q1127 1421 878 1421Q629 1421 452 1244Q275 1067 275 818Q275 569 452 392Q629 215 878 215ZM540 0T300 240Q60 480 60 818Q60 1156 300 1396Q540 1636 878 1636Q1216 1636 1456 1396Q1696 1156 1696 818Q1696 543 1530 324L1853 0H1538L1372 166Q1153 0 878 0Q540 0 300 240Z"
></glyph
><glyph unicode="R" horiz-adv-x="1183" d="M481 596Q648 596 767 715Q886 833 886 1001Q886 1169 767 1287Q648 1406 481 1406H307V596H481ZM839 0L549 365H307V0H76V1636H481Q744 1636 930 1450Q1116 1264 1116 1001Q1116 737 930 551Q865 487 786 442L1133 0H839Z"
></glyph
><glyph unicode="S" horiz-adv-x="1146" d="M375 0T232 118Q77 249 77 468H298Q298 343 394 275Q472 221 569 221Q690 221 773.5 282T857 458Q857 534 806 577Q736 650 556 670Q304 700 171 846Q60 967 60 1127Q60 1314 172 1459Q311 1636 560 1636Q789 1636 937 1488Q1086 1340 1086 1091H866Q866 1233 798 1316Q716 1416 560 1416Q387 1416 317 1273Q281 1199 281 1127Q281 1064 324 1008Q399 910 582 890Q860 858 983 709Q1078 596 1078 424Q1078 249 934 124.5T569 0Q375 0 232 118Z"
></glyph
><glyph unicode="T" horiz-adv-x="1142" d="M1084 1412H684V0H458V1412H58V1636H1084V1412Z"
></glyph
><glyph unicode="U" horiz-adv-x="1350" d="M420 0T240 180Q60 361 60 615V1636H284V615Q284 453 398 339Q513 224 675 224Q837 224 952 339Q1066 453 1066 615V1636H1290V615Q1290 361 1110 180Q930 0 675 0Q420 0 240 180Z"
></glyph
><glyph unicode="V" horiz-adv-x="1429" d="M60 1636H301L714 602L1128 1636H1369L714 0L60 1636Z"
></glyph
><glyph unicode="W" horiz-adv-x="2178" d="M2118 1636L1469 0L1089 1004L709 0L60 1636H304L709 638L1089 1636L1469 638L1874 1636H2118Z"
></glyph
><glyph unicode="X" horiz-adv-x="1464" d="M1404 0H1137L732 615L328 0H60L598 819L60 1636H328L732 1022L1137 1636H1404L866 819L1404 0Z"
></glyph
><glyph unicode="Y" horiz-adv-x="1567" d="M1507 1636L895 413V0H671V413L60 1636H310L783 689L1256 1636H1507Z"
></glyph
><glyph unicode="Z" horiz-adv-x="1196" d="M1136 0H65L772 1415H60V1636H1130L423 221H1136V0Z"
></glyph
><glyph unicode="[" horiz-adv-x="500" d="M60 1992H440V1778H274V-137H440V-351H60V1992Z"
></glyph
><glyph unicode="\" horiz-adv-x="703" d="M420 0L60 1636H283L643 0H420Z"
></glyph
><glyph unicode="]" horiz-adv-x="500" d="M440 -351H60V-137H226V1778H60V1992H440V-351Z"
></glyph
><glyph unicode="^" horiz-adv-x="541" d="M481 1309L350 1222L270 1342L191 1222L60 1309L270 1625L481 1309Z"
></glyph
><glyph unicode="_" horiz-adv-x="904" d="M60 224H844V0H60V224Z"
></glyph
><glyph unicode="`" horiz-adv-x="501" d="M124 1384L473 1191L381 993L32 1186L124 1384Z"
></glyph
><glyph unicode="a" horiz-adv-x="1061" d="M429 716T356 644Q285 571 285 470Q285 369 356 296Q429 224 530 224Q632 224 705 296Q777 369 777 470Q777 571 705 644Q632 716 530 716Q429 716 356 644ZM780 70Q669 0 530 0Q336 0 199 138Q60 276 60 470Q60 664 199 801Q336 940 530 940Q725 940 863 801Q1001 664 1001 470V0H780V70Z"
></glyph
><glyph unicode="b" horiz-adv-x="1061" d="M429 717T356 645Q285 572 285 470Q285 369 356 296Q429 224 530 224Q632 224 705 296Q777 369 777 470Q777 572 705 645Q632 717 530 717Q429 717 356 645ZM60 1636H281V871Q393 941 530 941Q725 941 863 802Q1001 665 1001 470Q1001 276 863 138Q725 0 530 0Q336 0 199 138Q60 276 60 470V1636Z"
></glyph
><glyph unicode="c" horiz-adv-x="987" d="M747 351L927 216Q900 175 863 138Q725 0 530 0Q336 0 199 138Q60 276 60 470Q60 664 199 801Q336 940 530 940Q725 940 863 801Q900 765 927 724L747 589Q730 618 705 644Q632 716 530 716Q429 716 356 644Q285 571 285 470Q285 369 356 296Q429 224 530 224Q632 224 705 296Q731 322 747 351Z"
></glyph
><glyph unicode="d" horiz-adv-x="1061" d="M531 717Q429 717 356 645Q284 572 284 470Q284 369 356 296Q429 224 531 224Q632 224 705 296Q776 369 776 470Q776 572 705 645Q632 717 531 717ZM1001 470Q1001 276 862 138Q725 0 531 0Q336 0 198 138Q60 276 60 470Q60 665 198 802Q336 941 531 941Q668 941 780 871V1636H1001V470Z"
></glyph
><glyph unicode="e" horiz-adv-x="1064" d="M522 716Q475 714 431 695Q384 674 350 639Q320 603 301 560Q286 522 284 484L685 660Q655 684 620 699Q574 716 526 716H522ZM532 0Q443 0 360 32Q274 66 208 129Q138 194 101 281Q63 363 60 453V468Q60 558 92 640Q126 726 188 792Q254 862 341 899Q426 937 518 940H528Q617 940 700 907Q785 873 852 810Q932 733 1004 557L374 280Q405 255 440 241Q484 224 529 224H539Q585 226 629 245Q674 265 709 301Q740 337 759 380L967 300Q933 215 871 148Q806 78 719 41Q636 3 546 0H532Z"
></glyph
><glyph unicode="f" horiz-adv-x="766" d="M443 653H605V429H443V0H222V429H60V653H222V1051Q222 1359 402 1516Q539 1635 711 1635V1524L712 1413Q628 1412 561 1359Q443 1267 443 1051V653Z"
></glyph
><glyph unicode="g" horiz-adv-x="1059" d="M429 717T356 645Q285 572 285 470Q285 369 356 296Q429 224 530 224Q632 224 705 296Q777 369 777 470Q777 572 705 645Q632 717 530 717Q429 717 356 645ZM999 -95Q999 -401 819 -557Q683 -676 512 -676V-566L511 -455Q594 -453 661 -401Q778 -310 778 -95V69Q668 0 530 0Q336 0 199 138Q60 276 60 470Q60 665 199 802Q336 941 530 941Q725 941 863 802Q999 665 999 470V-95Z"
></glyph
><glyph unicode="h" horiz-adv-x="1053" d="M530 940Q721 940 857 805Q993 669 993 477V0H772V477Q772 578 701 648Q630 720 530 720Q430 720 358 648Q287 578 287 477V0H60V1636H281V868Q394 940 530 940Z"
></glyph
><glyph unicode="i" horiz-adv-x="398" d="M310 0H89V560H310V0ZM338 743T297 701Q257 660 200 660Q142 660 101 701Q60 743 60 800Q60 858 101 899Q142 940 200 940Q257 940 297 899Q338 858 338 800Q338 743 297 701Z"
></glyph
><glyph unicode="j" horiz-adv-x="401" d="M-173 -566L-174 -455Q-91 -453 -24 -401Q93 -310 93 -95V560H314V-95Q314 -401 134 -557Q-2 -676 -173 -676V-566ZM342 743T301 701Q261 660 204 660Q146 660 105 701Q64 743 64 800Q64 858 105 899Q146 940 204 940Q261 940 301 899Q342 858 342 800Q342 743 301 701Z"
></glyph
><glyph unicode="k" horiz-adv-x="924" d="M947 0H660L281 460V0H60V1636H281V685L535 940H847L477 570L947 0Z"
></glyph
><glyph unicode="l" horiz-adv-x="341" d="M281 0H60V1636H281V0Z"
></glyph
><glyph unicode="m" horiz-adv-x="1456" d="M1008 940Q1169 940 1282 826Q1396 712 1396 551V0H1177V551Q1177 621 1127 671Q1078 720 1008 720Q938 720 889 671Q839 621 839 551V0H617V551Q617 621 568 671Q518 720 448 720Q379 720 329 671Q280 621 280 551V0H60V551Q60 712 174 826Q288 940 448 940Q613 940 728 821Q843 940 1008 940Z"
></glyph
><glyph unicode="n" horiz-adv-x="1053" d="M527 940Q719 940 856 803Q993 666 993 473V0H771V473Q771 574 699 646Q627 717 527 717Q426 717 354 646Q282 574 282 473V0H60V473Q60 666 197 803Q334 940 527 940Z"
></glyph
><glyph unicode="o" horiz-adv-x="1060" d="M429 716T356 644Q285 571 285 470Q285 369 356 296Q429 224 530 224Q631 224 704 296Q776 369 776 470Q776 571 704 644Q631 716 530 716Q429 716 356 644ZM336 0T199 138Q60 276 60 470Q60 664 199 801Q336 940 530 940Q724 940 862 801Q1000 664 1000 470Q1000 276 862 138Q724 0 530 0Q336 0 199 138Z"
></glyph
><glyph unicode="p" horiz-adv-x="1061" d="M531 717Q429 717 356 645Q284 572 284 470Q284 369 356 296Q429 224 531 224Q632 224 705 296Q776 369 776 470Q776 572 705 645Q632 717 531 717ZM62 470Q62 665 198 802Q336 941 531 941Q725 941 862 802Q1001 665 1001 470Q1001 276 862 138Q725 0 531 0Q393 0 283 69V-95Q283 -310 400 -401Q467 -453 550 -455L549 -566V-676Q378 -676 242 -557Q62 -401 62 -95V470Z"
></glyph
><glyph unicode="q" horiz-adv-x="1051" d="M429 717T356 645Q285 572 285 470Q285 369 356 296Q429 224 530 224Q632 224 705 296Q777 369 777 470Q777 572 705 645Q632 717 530 717Q429 717 356 645ZM1001 -95Q1001 -310 1118 -401Q1185 -453 1268 -455L1267 -566V-676Q1096 -676 960 -557Q780 -401 778 -95V69Q668 0 530 0Q336 0 199 138Q60 276 60 470Q60 665 199 802Q336 941 530 941Q725 941 863 802Q1001 665 1001 470V-95Z"
></glyph
><glyph unicode="r" horiz-adv-x="582" d="M342 903Q428 939 522 939V719Q473 719 428 700Q385 681 351 647Q317 614 300 571Q281 542 281 485V0H60V940H281V871Q313 891 342 903Z"
></glyph
><glyph unicode="s" horiz-adv-x="750" d="M253 0T165 76Q69 159 69 285H287Q287 244 330 227Q352 218 373 218Q414 218 439 230T468 269Q468 298 454 311Q431 334 361 343Q215 359 133 447Q60 525 60 628Q60 750 140 840Q227 940 368 940Q508 940 599 849Q690 757 690 619H472Q472 721 368 721Q278 721 278 628Q278 571 386 558Q558 538 634 437Q686 368 686 269Q686 151 593.5 75.5T373 0Q253 0 165 76Z"
></glyph
><glyph unicode="t" horiz-adv-x="692" d="M632 1111H451V0H241V1111H60V1322H241V1636H451V1322H632V1111Z"
></glyph
><glyph unicode="u" horiz-adv-x="1048" d="M523 0Q331 0 196 136Q60 271 60 463V940H283V463Q283 363 353 292Q425 221 524 221Q623 221 695 292Q765 363 765 463V940H988V463Q988 271 852 136Q717 0 525 0H523Z"
></glyph
><glyph unicode="v" horiz-adv-x="1015" d="M60 940H295L508 355L720 940H955L614 0H402L60 940Z"
></glyph
><glyph unicode="w" horiz-adv-x="1258" d="M1028 0H781L628 356L476 0H230L60 940H284L390 358L628 916L868 358L974 940H1198L1028 0Z"
></glyph
><glyph unicode="x" horiz-adv-x="1107" d="M1047 0H769L553 286L336 0H60L414 471L60 940H336L553 654L769 940H1047L692 471L1047 0Z"
></glyph
><glyph unicode="y" horiz-adv-x="1062" d="M997 940V-95Q997 -401 816 -557Q681 -676 510 -676V-566L508 -455Q592 -453 658 -401Q776 -310 776 -95V68Q664 0 533 0Q342 0 207 135Q70 271 70 462V940H291V462Q291 362 362 291Q434 220 533 220Q633 220 705 291Q776 362 776 462V940H997Z"
></glyph
><glyph unicode="z" horiz-adv-x="924" d="M866 0H50L468 719H54V939H870L451 221H866V0Z"
></glyph
><glyph unicode="{" horiz-adv-x="783" d="M513 299Q513 161 600 102Q652 66 723 64L722 -153Q566 -153 445 -51Q296 74 296 299Q296 555 227 644Q178 706 61 706V815L60 924Q131 925 183 961Q270 1021 270 1159Q270 1400 326 1535Q430 1783 722 1783V1566Q605 1566 556 1503Q487 1415 487 1159Q487 948 355 823Q513 680 513 299Z"
></glyph
><glyph unicode="|" horiz-adv-x="343" d="M283 -130H60V1764H283V-130Z"
></glyph
><glyph unicode="}" horiz-adv-x="783" d="M270 680T428 823Q296 948 296 1159Q296 1415 227 1503Q178 1566 61 1566V1783Q353 1783 457 1535Q513 1400 513 1159Q513 1021 600 961Q652 925 723 924L722 815V706Q605 706 556 644Q487 555 487 299Q487 74 338 -51Q217 -153 61 -153L60 64Q131 66 183 102Q270 161 270 299Q270 680 428 823Z"
></glyph
><glyph unicode="~" horiz-adv-x="999" d="M60 1142Q163 1094 264 1094Q281 1094 297 1095Q369 1100 499 1142Q630 1184 701 1189Q717 1190 734 1190Q836 1190 939 1142V907Q836 955 734 955Q717 955 701 954Q630 949 499 907Q369 865 297 860Q281 859 264 859Q163 859 60 907V1142Z"
></glyph
><glyph unicode="&#xa0;" horiz-adv-x="508" d=""
></glyph
><glyph unicode="&#xa1;" horiz-adv-x="344" d="M284 0H60V1210H284V0ZM284 1389H60V1636H284V1389Z"
></glyph
><glyph unicode="&#xa2;" horiz-adv-x="807" d="M466 1243H456Q403 1243 355 1223Q308 1203 272 1167Q236 1131 217 1084Q196 1036 196 983Q196 930 217 882Q236 836 272 800Q294 778 320 762L466 1243ZM651 811L747 714L733 700Q679 648 610 619Q537 587 456 587Q432 587 407 590L359 429L231 467L280 629Q222 657 176 703Q121 758 91 829Q60 903 60 983Q60 1064 91 1138Q121 1209 176 1263Q231 1318 302 1348Q376 1379 456 1379Q480 1379 506 1376L559 1551L686 1513L633 1338Q689 1310 733 1266L747 1253L651 1156L637 1170Q617 1189 593 1204L448 724H456Q509 724 557 744Q602 763 637 797L651 811Z"
></glyph
><glyph unicode="&#xa3;" horiz-adv-x="1136" d="M303 217Q329 245 343 308Q311 298 290 279Q261 253 261 220Q261 205 265 201Q289 202 303 217ZM1076 201V0L1046 1Q920 4 818 66Q758 103 672 189Q591 270 545 293Q518 154 451 81Q377 0 265 0Q177 0 119 63Q60 126 60 220Q60 342 155 428Q236 502 363 517V535Q363 637 353 781H92V997H336Q324 1145 324 1216Q324 1477 539 1584Q627 1629 727 1634L757 1636V1435L731 1433Q656 1427 605 1391Q525 1334 525 1216Q525 1151 538 997H815V781H555Q565 636 565 534V501Q679 467 814 331Q880 265 916 242Q975 205 1048 202L1076 201Z"
></glyph
><glyph unicode="&#xa4;" horiz-adv-x="608" d="M376 741V599L495 646L548 512L428 465L520 358L412 263L304 387L196 263L87 358L181 465L60 512L113 646L232 599V741H376ZM304 566Q276 566 256.5 547T237 502Q237 476 256.5 457T304 438Q332 438 351.5 457T371 502Q371 528 351.5 547T304 566Z"
></glyph
><glyph unicode="&#xa5;" horiz-adv-x="1567" d="M595 565L60 1636H310L783 689L1256 1636H1507L971 565H1203V394H895V309H1103V139H895V0H671V139H465V309H671V394H365V565H595Z"
></glyph
><glyph unicode="&#xa6;" horiz-adv-x="1014" d=""
></glyph
><glyph unicode="&#xa7;" horiz-adv-x="738" d="M526 791Q526 839 483 881Q434 930 361 930Q281 930 240 876Q210 835 210 783Q210 737 252 698Q300 654 375 654Q452 654 492 699Q526 736 526 791ZM574 573Q671 499 671 363Q671 255 572 178Q480 107 365 107Q249 107 163 180Q70 260 70 383V393H218V383Q218 320 270 284Q313 255 365 255Q420 255 470 287Q523 322 523 363Q523 416 498 444Q460 485 357 497Q206 514 126 602Q60 675 60 772Q60 919 164 1009Q65 1083 65 1221Q65 1329 163 1405Q256 1477 370 1477Q487 1477 573 1404Q666 1324 666 1201V1191H518V1201Q518 1264 466 1300Q423 1329 370 1329Q316 1329 265 1296Q213 1262 213 1221Q213 1167 238 1140Q276 1099 379 1087Q546 1068 621 974Q678 902 678 793Q678 642 574 573Z"
></glyph
><glyph unicode="&#xa8;" horiz-adv-x="656" d="M278 1227V1003H60V1227H278ZM596 1227V1003H378V1227H596Z"
></glyph
><glyph unicode="&#xa9;" horiz-adv-x="1311" d="M528 880Q499 852 484 816Q468 778 468 736Q468 695 484 657Q499 621 528 592Q556 564 592 549Q630 533 671 533Q713 533 751 549Q786 564 813 590L836 612L939 509L916 487Q868 440 807 415Q742 387 671 387Q600 387 535 415Q473 441 425 489Q376 538 350 600Q322 665 322 736Q322 807 350 872Q376 935 424 983Q473 1032 535 1058Q600 1086 671 1086Q742 1086 807 1058Q868 1032 916 986L939 963L836 860L813 882Q786 909 751 924Q713 940 671 940Q630 940 592 924Q556 908 528 880ZM656 276Q846 276 981 411Q1116 546 1116 736Q1116 927 981 1062Q846 1197 656 1197Q465 1197 330 1062Q195 927 195 736Q195 546 330 411Q465 276 656 276ZM656 1332Q902 1332 1076 1157Q1251 983 1251 736Q1251 490 1076 316Q902 141 656 141Q409 141 235 316Q60 490 60 736Q60 983 235 1157Q409 1332 656 1332Z"
></glyph
><glyph unicode="&#xaa;" horiz-adv-x="648" d=""
></glyph
><glyph unicode="&#xab;" horiz-adv-x="660" d="M249 881L335 656L259 515L335 372L249 147L60 515L249 881ZM514 881L600 656L524 515L600 372L514 147L325 515L514 881Z"
></glyph
><glyph unicode="&#xac;" horiz-adv-x="1014" d=""
></glyph
><glyph unicode="&#xad;" horiz-adv-x="739" d="M58 629H698V408H58V629Z"
></glyph
><glyph unicode="&#xae;" horiz-adv-x="1311" d="M601 669H633Q682 669 717 704Q752 738 752 787Q752 836 717 871Q682 906 633 906H601V669ZM823 598Q809 584 793 572L941 384H751L644 520Q639 519 633 519H601V384H451V1055H633Q744 1055 823 977Q901 898 901 787Q901 676 823 598ZM656 259Q846 259 981 394Q1116 529 1116 720Q1116 910 981 1045Q846 1180 656 1180Q465 1180 330 1045Q195 910 195 720Q195 529 330 394Q465 259 656 259ZM656 1315Q902 1315 1076 1140Q1251 966 1251 720Q1251 473 1076 299Q902 124 656 124Q409 124 235 299Q60 473 60 720Q60 966 235 1140Q409 1315 656 1315Z"
></glyph
><glyph unicode="&#xaf;" horiz-adv-x="670" d=""
></glyph
><glyph unicode="&#xb0;" horiz-adv-x="504" d="M210 1611T180 1582Q151 1552 151 1511Q151 1470 180 1440Q210 1411 251 1411Q292 1411 322 1440Q351 1470 351 1511Q351 1552 322 1582Q292 1611 251 1611Q210 1611 180 1582ZM172 1320T116 1376Q60 1432 60 1511Q60 1590 116 1646Q172 1702 251 1702Q330 1702 386 1646Q442 1590 442 1511Q442 1432 386 1376Q330 1320 251 1320Q172 1320 116 1376Z"
></glyph
><glyph unicode="&#xb1;" horiz-adv-x="947" d="M584 848H887V627H584V324H363V627H60V848H363V1151H584V848ZM60 224H844V0H60V224Z"
></glyph
><glyph unicode="&#xb2;" horiz-adv-x="397" d="M340 1207H70L73 1239Q75 1266 90 1299Q121 1364 187 1403Q252 1441 269 1465Q281 1482 281 1514Q281 1542 264 1558Q244 1578 202 1578Q198 1578 193 1577Q147 1575 129 1536Q118 1514 118 1490H60V1492Q60 1540 86 1579Q121 1633 191 1636Q197 1636 202 1636Q268 1636 305 1601Q340 1567 340 1514Q340 1463 317 1432Q292 1397 217 1353Q161 1320 139 1266H340V1207Z"
></glyph
><glyph unicode="&#xb3;" horiz-adv-x="414" d="M204 1474Q231 1474 250 1491Q268 1505 268 1526Q268 1546 250 1562Q231 1578 204 1578Q176 1578 158 1562Q140 1546 140 1526H82Q82 1573 119 1605Q155 1636 204 1636Q253 1636 289 1605Q326 1573 326 1526Q326 1480 290 1448Q298 1443 305 1436Q349 1397 349 1341Q349 1284 305 1245Q263 1207 204 1207Q145 1207 103 1245Q59 1284 59 1341H117Q117 1310 141 1288Q167 1265 204 1265Q241 1265 267 1288Q291 1310 291 1341Q291 1371 267 1393Q241 1416 204 1416H158V1474H204Z"
></glyph
><glyph unicode="&#xb4;" horiz-adv-x="501" d="M473 1186L124 993L32 1191L381 1384L473 1186Z"
></glyph
><glyph unicode="&#xb5;" horiz-adv-x="1180" d=""
></glyph
><glyph unicode="&#xb6;" horiz-adv-x="1024" d=""
></glyph
><glyph unicode="&#xb7;" horiz-adv-x="342" d="M280 585V361H62V585H280Z"
></glyph
><glyph unicode="&#xb8;" horiz-adv-x="362" d="M101 -569T29 -545Q-53 -518 -96 -464Q-140 -411 -140 -338H-6Q-6 -360 3 -374Q21 -402 71 -418Q123 -435 173 -435Q217 -435 264 -422Q353 -397 353 -338Q353 -278 264 -253Q217 -240 173 -240H107V51H240V-112Q340 -127 404 -175Q487 -236 487 -338Q487 -459 371 -522Q284 -569 173 -569Q101 -569 29 -545Z"
></glyph
><glyph unicode="&#xb9;" horiz-adv-x="246" d="M192 1636V1207H134V1542L94 1502L53 1544L146 1636H192Z"
></glyph
><glyph unicode="&#xba;" horiz-adv-x="409" d="M161 1575T136 1550Q101 1514 101 1422Q101 1357 121 1319Q147 1268 205 1268Q264 1268 289 1319Q309 1357 309 1422Q309 1514 274 1550Q250 1575 205 1575Q161 1575 136 1550ZM128 1207T84 1264Q40 1321 40 1422Q40 1545 99 1599Q141 1636 205 1636Q270 1636 311 1599Q370 1545 370 1422Q370 1321 326 1264Q283 1207 205 1207Q128 1207 84 1264Z"
></glyph
><glyph unicode="&#xbb;" horiz-adv-x="660" d="M600 515L411 147L325 372L401 515L325 656L411 881L600 515ZM335 515L146 147L60 372L136 515L60 656L146 881L335 515Z"
></glyph
><glyph unicode="&#xbc;" horiz-adv-x="1287" d="M311 0L671 1636H794L434 0H311ZM335 1636V855H229V1464L156 1393L81 1469L251 1636H335ZM1202 0H1093V436H751V781H860V545H1093V781H1202V0Z"
></glyph
><glyph unicode="&#xbd;" horiz-adv-x="1299" d="M1197 0H706L711 57Q714 106 743 168Q799 286 919 357Q1037 426 1069 470Q1090 500 1090 559Q1090 610 1059 640Q1023 675 946 675Q938 675 930 674Q846 671 812 599Q794 560 794 516L687 515V518Q687 606 735 678Q799 775 926 781Q936 781 946 781Q1065 781 1133 717Q1197 655 1197 559Q1197 465 1156 409Q1111 346 973 265Q872 206 832 106H1197V0ZM281 0L641 1636H764L404 0H281ZM335 1636V855H229V1464L156 1393L81 1469L251 1636H335Z"
></glyph
><glyph unicode="&#xbe;" horiz-adv-x="1456" d="M1364 0H1255V436H914V781H1022V545H1255V781H1364V0ZM353 1340Q403 1340 438 1371Q469 1398 469 1435Q469 1473 438 1500Q403 1530 353 1530Q303 1530 269 1500Q237 1473 237 1435H131Q131 1521 199 1580Q263 1636 353 1636Q443 1636 507 1580Q575 1521 575 1435Q575 1352 510 1294Q524 1284 537 1272Q617 1200 617 1098Q617 995 537 924Q461 855 353 855Q245 855 168 924Q89 995 89 1098H195Q195 1043 239 1003Q286 960 353 960Q420 960 467 1003Q512 1043 512 1098Q512 1153 467 1193Q420 1235 353 1235H269V1340H353ZM489 0L849 1636H972L612 0H489Z"
></glyph
><glyph unicode="&#xbf;" horiz-adv-x="1181" d="M532 1572T564 1604Q596 1636 642 1636Q687 1636 720 1604Q752 1572 752 1526Q752 1480 720 1448Q687 1416 642 1416Q596 1416 564 1448Q532 1480 532 1526Q532 1572 564 1604ZM212 143Q48 291 48 502Q48 714 212 862Q354 989 531 1003V1257H752V786H577Q455 786 358 699Q267 617 267 502Q267 388 358 306Q455 219 594 219Q733 219 830 306Q921 388 921 502H1140Q1140 291 976 143Q817 0 594 0Q371 0 212 143Z"
></glyph
><glyph unicode="&#xc0;" horiz-adv-x="1431" d="M956 429L715 1030L476 429H956ZM1047 203H385L304 0H60L715 1639L1371 0H1128L1047 203ZM603 2024L952 1831L860 1633L511 1826L603 2024Z"
></glyph
><glyph unicode="&#xc1;" horiz-adv-x="1431" d="M956 429L715 1030L476 429H956ZM1047 203H385L304 0H60L715 1639L1371 0H1128L1047 203ZM919 1828L570 1635L478 1833L827 2026L919 1828Z"
></glyph
><glyph unicode="&#xc2;" horiz-adv-x="1431" d="M956 429L715 1030L476 429H956ZM1047 203H385L304 0H60L715 1639L1371 0H1128L1047 203ZM967 1749L800 1646L709 1774L617 1646L450 1749L709 2087L967 1749Z"
></glyph
><glyph unicode="&#xc3;" horiz-adv-x="1431" d="M956 429L715 1030L476 429H956ZM1047 203H385L304 0H60L715 1639L1371 0H1128L1047 203ZM347 1932Q431 1874 514 1874Q528 1874 541 1875Q599 1880 706 1932Q813 1984 871 1989Q884 1990 898 1990Q981 1990 1065 1932V1697Q981 1755 898 1755Q884 1755 871 1754Q813 1749 706 1697Q599 1645 541 1640Q528 1639 514 1639Q431 1639 347 1697V1932Z"
></glyph
><glyph unicode="&#xc4;" horiz-adv-x="1431" d="M956 429L715 1030L476 429H956ZM1047 203H385L304 0H60L715 1639L1371 0H1128L1047 203ZM656 1916V1692H438V1916H656ZM974 1916V1692H756V1916H974Z"
></glyph
><glyph unicode="&#xc5;" horiz-adv-x="1431" d="M956 429L715 1030L476 429H956ZM673 1861T644 1832Q615 1802 615 1761Q615 1720 644 1690Q673 1661 715 1661Q756 1661 785 1690Q814 1720 814 1761Q814 1802 785 1832Q756 1861 715 1861Q673 1861 644 1832ZM742 1572L1371 0H1128L1047 203H385L304 0H60L688 1572Q626 1580 580 1626Q524 1682 524 1761Q524 1840 580 1896Q636 1952 715 1952Q793 1952 849 1896Q906 1840 906 1761Q906 1682 849 1626Q803 1580 742 1572Z"
></glyph
><glyph unicode="&#xc6;" horiz-adv-x="1847" d="M956 429L715 1030L476 429H956ZM1128 0L1047 203H385L304 0H60L715 1639L716 1636H1776V1413H878L1197 653H1646V429H1291L1377 224H1776V0H1128Z"
></glyph
><glyph unicode="&#xc7;" horiz-adv-x="1499" d="M793 4Q672 17 559 64Q413 126 299 239Q186 353 124 500Q60 652 60 819Q60 985 124 1137Q186 1284 299 1397Q413 1510 559 1572Q712 1636 878 1636Q1044 1636 1196 1572Q1332 1515 1439 1414L1289 1264Q1212 1336 1114 1378Q1001 1425 878 1425Q755 1425 642 1378Q533 1331 449 1247Q365 1163 319 1055Q272 941 272 819Q272 695 319 582Q365 473 449 390Q533 305 642 259Q755 212 878 212Q1001 212 1114 259Q1211 301 1289 372L1439 222Q1331 122 1196 64Q1066 9 926 1V-92Q1026 -107 1091 -155Q1173 -216 1173 -318Q1173 -439 1057 -502Q970 -549 860 -549Q787 -549 715 -525Q633 -498 590 -444Q546 -391 546 -318H680Q680 -340 689 -354Q707 -382 757 -398Q809 -415 860 -415Q903 -415 950 -402Q1039 -377 1039 -318Q1039 -258 950 -233Q903 -220 860 -220H793V4Z"
></glyph
><glyph unicode="&#xc8;" horiz-adv-x="1066" d="M284 1413V653H841V429H284V224H1006V0H60V1636H1006V1413H284ZM411 2071L760 1878L668 1680L319 1873L411 2071Z"
></glyph
><glyph unicode="&#xc9;" horiz-adv-x="1066" d="M284 1413V653H841V429H284V224H1006V0H60V1636H1006V1413H284ZM750 1876L401 1683L309 1881L658 2074L750 1876Z"
></glyph
><glyph unicode="&#xca;" horiz-adv-x="1066" d="M284 1413V653H841V429H284V224H1006V0H60V1636H1006V1413H284ZM764 1827L597 1724L506 1852L414 1724L247 1827L506 2165L764 1827Z"
></glyph
><glyph unicode="&#xcb;" horiz-adv-x="1066" d="M284 1413V653H841V429H284V224H1006V0H60V1636H1006V1413H284ZM483 1937V1713H265V1937H483ZM801 1937V1713H583V1937H801Z"
></glyph
><glyph unicode="&#xcc;" horiz-adv-x="343" d="M312 0H89V1636H312V0ZM100 2076L449 1883L357 1685L8 1878L100 2076Z"
></glyph
><glyph unicode="&#xcd;" horiz-adv-x="343" d="M283 0H60V1636H283V0ZM358 1866L9 1673L-83 1871L266 2064L358 1866Z"
></glyph
><glyph unicode="&#xce;" horiz-adv-x="343" d="M283 0H60V1636H283V0ZM428 1818L261 1715L170 1843L78 1715L-89 1818L170 2156L428 1818Z"
></glyph
><glyph unicode="&#xcf;" horiz-adv-x="343" d="M283 0H60V1636H283V0ZM122 1940V1716H-96V1940H122ZM440 1940V1716H222V1940H440Z"
></glyph
><glyph unicode="&#xd0;" horiz-adv-x="1310" d="M60 930V1636H432Q599 1636 750 1572Q897 1510 1011 1396Q1123 1284 1185 1136Q1250 985 1250 819Q1250 651 1185 500Q1123 353 1011 240Q897 127 750 65Q599 0 432 0H60V706H-50V930H60ZM286 930H734V706H286V227H432Q552 227 662 273Q768 318 850 400Q932 482 978 588Q1024 698 1024 819Q1024 939 978 1049Q932 1155 850 1236Q768 1318 662 1363Q552 1410 432 1410H286V930Z"
></glyph
><glyph unicode="&#xd1;" horiz-adv-x="1309" d="M1249 0L281 1070V0H60V1636L1029 583V1636H1249V0ZM296 1932Q380 1874 463 1874Q477 1874 490 1875Q548 1880 655 1932Q762 1984 820 1989Q833 1990 847 1990Q930 1990 1014 1932V1697Q930 1755 847 1755Q833 1755 820 1754Q762 1749 655 1697Q548 1645 490 1640Q477 1639 463 1639Q380 1639 296 1697V1932Z"
></glyph
><glyph unicode="&#xd2;" horiz-adv-x="1756" d="M629 1422T452 1245Q276 1068 276 819Q276 569 452 392Q629 216 879 216Q1128 216 1305 392Q1482 569 1482 819Q1482 1068 1305 1245Q1128 1422 879 1422Q629 1422 452 1245ZM540 0T300 240Q60 480 60 819Q60 1156 300 1397Q540 1636 879 1636Q1216 1636 1457 1397Q1696 1156 1696 819Q1696 480 1457 240Q1216 0 879 0Q540 0 300 240ZM806 2074L1155 1881L1063 1683L714 1876L806 2074Z"
></glyph
><glyph unicode="&#xd3;" horiz-adv-x="1756" d="M629 1422T452 1245Q276 1068 276 819Q276 569 452 392Q629 216 879 216Q1128 216 1305 392Q1482 569 1482 819Q1482 1068 1305 1245Q1128 1422 879 1422Q629 1422 452 1245ZM540 0T300 240Q60 480 60 819Q60 1156 300 1397Q540 1636 879 1636Q1216 1636 1457 1397Q1696 1156 1696 819Q1696 480 1457 240Q1216 0 879 0Q540 0 300 240ZM1062 1866L713 1673L621 1871L970 2064L1062 1866Z"
></glyph
><glyph unicode="&#xd4;" horiz-adv-x="1756" d="M629 1422T452 1245Q276 1068 276 819Q276 569 452 392Q629 216 879 216Q1128 216 1305 392Q1482 569 1482 819Q1482 1068 1305 1245Q1128 1422 879 1422Q629 1422 452 1245ZM540 0T300 240Q60 480 60 819Q60 1156 300 1397Q540 1636 879 1636Q1216 1636 1457 1397Q1696 1156 1696 819Q1696 480 1457 240Q1216 0 879 0Q540 0 300 240ZM1139 1807L972 1704L881 1832L789 1704L622 1807L881 2145L1139 1807Z"
></glyph
><glyph unicode="&#xd5;" horiz-adv-x="1756" d="M629 1422T452 1245Q276 1068 276 819Q276 569 452 392Q629 216 879 216Q1128 216 1305 392Q1482 569 1482 819Q1482 1068 1305 1245Q1128 1422 879 1422Q629 1422 452 1245ZM540 0T300 240Q60 480 60 819Q60 1156 300 1397Q540 1636 879 1636Q1216 1636 1457 1397Q1696 1156 1696 819Q1696 480 1457 240Q1216 0 879 0Q540 0 300 240ZM519 1992Q603 1934 686 1934Q700 1934 713 1935Q771 1940 878 1992Q985 2044 1043 2049Q1056 2050 1070 2050Q1153 2050 1237 1992V1757Q1153 1815 1070 1815Q1056 1815 1043 1814Q985 1809 878 1757Q771 1705 713 1700Q700 1699 686 1699Q603 1699 519 1757V1992Z"
></glyph
><glyph unicode="&#xd6;" horiz-adv-x="1756" d="M629 1422T452 1245Q276 1068 276 819Q276 569 452 392Q629 216 879 216Q1128 216 1305 392Q1482 569 1482 819Q1482 1068 1305 1245Q1128 1422 879 1422Q629 1422 452 1245ZM540 0T300 240Q60 480 60 819Q60 1156 300 1397Q540 1636 879 1636Q1216 1636 1457 1397Q1696 1156 1696 819Q1696 480 1457 240Q1216 0 879 0Q540 0 300 240ZM828 1927V1703H610V1927H828ZM1146 1927V1703H928V1927H1146Z"
></glyph
><glyph unicode="&#xd7;" horiz-adv-x="912" d="M463 695L677 909L833 753L619 539L833 325L677 168L463 383L248 168L92 325L306 539L92 753L248 909L463 695Z"
></glyph
><glyph unicode="&#xd8;" horiz-adv-x="1756" d="M919 1421Q899 1422 879 1422Q629 1422 452 1245Q276 1068 276 819Q276 569 452 392Q547 298 662 254L919 1421ZM838 217Q858 216 879 216Q1128 216 1305 392Q1482 569 1482 819Q1482 1068 1305 1245Q1210 1340 1094 1384L838 217ZM300 240Q60 480 60 819Q60 1156 300 1397Q540 1636 879 1636Q1216 1636 1457 1397Q1696 1156 1696 819Q1696 480 1457 240Q1216 0 879 0Q540 0 300 240Z"
></glyph
><glyph unicode="&#xd9;" horiz-adv-x="1350" d="M420 0T240 180Q60 361 60 615V1636H284V615Q284 453 398 339Q513 224 675 224Q837 224 952 339Q1066 453 1066 615V1636H1290V615Q1290 361 1110 180Q930 0 675 0Q420 0 240 180ZM546 1900L895 1707L803 1509L454 1702L546 1900Z"
></glyph
><glyph unicode="&#xda;" horiz-adv-x="1350" d="M420 0T240 180Q60 361 60 615V1636H284V615Q284 453 398 339Q513 224 675 224Q837 224 952 339Q1066 453 1066 615V1636H1290V615Q1290 361 1110 180Q930 0 675 0Q420 0 240 180ZM918 1724L569 1531L477 1729L826 1922L918 1724Z"
></glyph
><glyph unicode="&#xdb;" horiz-adv-x="1350" d="M420 0T240 180Q60 361 60 615V1636H284V615Q284 453 398 339Q513 224 675 224Q837 224 952 339Q1066 453 1066 615V1636H1290V615Q1290 361 1110 180Q930 0 675 0Q420 0 240 180ZM942 1719L775 1616L684 1744L592 1616L425 1719L684 2057L942 1719Z"
></glyph
><glyph unicode="&#xdc;" horiz-adv-x="1350" d="M420 0T240 180Q60 361 60 615V1636H284V615Q284 453 398 339Q513 224 675 224Q837 224 952 339Q1066 453 1066 615V1636H1290V615Q1290 361 1110 180Q930 0 675 0Q420 0 240 180ZM625 1865V1641H407V1865H625ZM943 1865V1641H725V1865H943Z"
></glyph
><glyph unicode="&#xdd;" horiz-adv-x="1567" d="M1507 1636L895 413V0H671V413L60 1636H310L783 689L1256 1636H1507ZM1013 1725L664 1532L572 1730L921 1923L1013 1725Z"
></glyph
><glyph unicode="&#xde;" horiz-adv-x="1120" d=""
></glyph
><glyph unicode="&#xdf;" horiz-adv-x="1251" d=""
></glyph
><glyph unicode="&#xe0;" horiz-adv-x="1061" d="M429 716T356 644Q285 571 285 470Q285 369 356 296Q429 224 530 224Q632 224 705 296Q777 369 777 470Q777 571 705 644Q632 716 530 716Q429 716 356 644ZM780 70Q669 0 530 0Q336 0 199 138Q60 276 60 470Q60 664 199 801Q336 940 530 940Q725 940 863 801Q1001 664 1001 470V0H780V70ZM441 1367L790 1174L698 976L349 1169L441 1367Z"
></glyph
><glyph unicode="&#xe1;" horiz-adv-x="1061" d="M429 716T356 644Q285 571 285 470Q285 369 356 296Q429 224 530 224Q632 224 705 296Q777 369 777 470Q777 571 705 644Q632 716 530 716Q429 716 356 644ZM780 70Q669 0 530 0Q336 0 199 138Q60 276 60 470Q60 664 199 801Q336 940 530 940Q725 940 863 801Q1001 664 1001 470V0H780V70ZM701 1169L352 976L260 1174L609 1367L701 1169Z"
></glyph
><glyph unicode="&#xe2;" horiz-adv-x="1061" d="M429 716T356 644Q285 571 285 470Q285 369 356 296Q429 224 530 224Q632 224 705 296Q777 369 777 470Q777 571 705 644Q632 716 530 716Q429 716 356 644ZM780 70Q669 0 530 0Q336 0 199 138Q60 276 60 470Q60 664 199 801Q336 940 530 940Q725 940 863 801Q1001 664 1001 470V0H780V70ZM789 1107L622 1004L531 1132L439 1004L272 1107L531 1445L789 1107Z"
></glyph
><glyph unicode="&#xe3;" horiz-adv-x="1061" d="M429 716T356 644Q285 571 285 470Q285 369 356 296Q429 224 530 224Q632 224 705 296Q777 369 777 470Q777 571 705 644Q632 716 530 716Q429 716 356 644ZM780 70Q669 0 530 0Q336 0 199 138Q60 276 60 470Q60 664 199 801Q336 940 530 940Q725 940 863 801Q1001 664 1001 470V0H780V70ZM171 1288Q255 1230 338 1230Q352 1230 365 1231Q423 1236 530 1288Q637 1340 695 1345Q708 1346 722 1346Q805 1346 889 1288V1053Q805 1111 722 1111Q708 1111 695 1110Q637 1105 530 1053Q423 1001 365 996Q352 995 338 995Q255 995 171 1053V1288Z"
></glyph
><glyph unicode="&#xe4;" horiz-adv-x="1061" d="M429 716T356 644Q285 571 285 470Q285 369 356 296Q429 224 530 224Q632 224 705 296Q777 369 777 470Q777 571 705 644Q632 716 530 716Q429 716 356 644ZM780 70Q669 0 530 0Q336 0 199 138Q60 276 60 470Q60 664 199 801Q336 940 530 940Q725 940 863 801Q1001 664 1001 470V0H780V70ZM481 1227V1003H263V1227H481ZM799 1227V1003H581V1227H799Z"
></glyph
><glyph unicode="&#xe5;" horiz-adv-x="1061" d="M429 716T356 644Q285 571 285 470Q285 369 356 296Q429 224 530 224Q632 224 705 296Q777 369 777 470Q777 571 705 644Q632 716 530 716Q429 716 356 644ZM490 1157T460 1128Q431 1098 431 1057Q431 1016 460 986Q490 957 531 957Q572 957 602 986Q631 1016 631 1057Q631 1098 602 1128Q572 1157 531 1157Q490 1157 460 1128ZM665 921Q776 889 863 801Q1001 664 1001 470V0H779V70Q669 0 530 0Q336 0 199 138Q60 276 60 470Q60 664 199 801Q286 889 396 922Q340 978 340 1057Q340 1136 396 1192Q452 1248 531 1248Q610 1248 666 1192Q722 1136 722 1057Q722 978 666 922L665 921Z"
></glyph
><glyph unicode="&#xe6;" horiz-adv-x="1780" d="M356 644Q285 571 285 470Q285 369 356 296Q429 224 530 224Q632 224 705 296Q777 369 777 470Q777 571 705 644Q632 716 530 716Q429 716 356 644ZM1245 716Q1198 714 1154 695Q1107 674 1073 639Q1043 603 1024 560Q1009 522 1007 484L1408 660Q1378 684 1343 699Q1297 716 1249 716H1245ZM1001 74V0H779V70Q669 0 530 0Q336 0 199 138Q60 276 60 470Q60 664 199 801Q336 940 530 940Q725 940 863 801Q878 786 892 770Q901 781 911 792Q977 862 1064 899Q1149 937 1241 940H1251Q1340 940 1423 907Q1508 873 1575 810Q1655 733 1727 557L1097 280Q1128 255 1163 241Q1207 224 1252 224H1262Q1308 226 1352 245Q1397 265 1432 301Q1463 337 1482 380L1690 300Q1656 215 1594 148Q1529 78 1442 41Q1359 3 1269 0H1255Q1166 0 1083 32Q1039 49 1001 74Z"
></glyph
><glyph unicode="&#xe7;" horiz-adv-x="987" d="M457 5Q309 27 199 138Q60 276 60 470Q60 664 199 801Q336 940 530 940Q725 940 863 801Q900 765 927 724L747 589Q730 618 705 644Q632 716 530 716Q429 716 356 644Q285 571 285 470Q285 369 356 296Q429 224 530 224Q632 224 705 296Q731 322 747 351L927 216Q900 175 863 138Q747 22 590 3V-92Q690 -107 754 -155Q837 -216 837 -318Q837 -439 721 -502Q634 -549 523 -549Q451 -549 379 -525Q297 -498 254 -444Q210 -391 210 -318H344Q344 -340 353 -354Q371 -382 421 -398Q473 -415 523 -415Q567 -415 614 -402Q703 -377 703 -318Q703 -258 614 -233Q567 -220 523 -220H457V5Z"
></glyph
><glyph unicode="&#xe8;" horiz-adv-x="1064" d="M522 716Q475 714 431 695Q384 674 350 639Q320 603 301 560Q286 522 284 484L685 660Q655 684 620 699Q574 716 526 716H522ZM532 0Q443 0 360 32Q274 66 208 129Q138 194 101 281Q63 363 60 453V468Q60 558 92 640Q126 726 188 792Q254 862 341 899Q426 937 518 940H528Q617 940 700 907Q785 873 852 810Q932 733 1004 557L374 280Q405 255 440 241Q484 224 529 224H539Q585 226 629 245Q674 265 709 301Q740 337 759 380L967 300Q933 215 871 148Q806 78 719 41Q636 3 546 0H532ZM442 1356L791 1163L699 965L350 1158L442 1356Z"
></glyph
><glyph unicode="&#xe9;" horiz-adv-x="1064" d="M522 716Q475 714 431 695Q384 674 350 639Q320 603 301 560Q286 522 284 484L685 660Q655 684 620 699Q574 716 526 716H522ZM532 0Q443 0 360 32Q274 66 208 129Q138 194 101 281Q63 363 60 453V468Q60 558 92 640Q126 726 188 792Q254 862 341 899Q426 937 518 940H528Q617 940 700 907Q785 873 852 810Q932 733 1004 557L374 280Q405 255 440 241Q484 224 529 224H539Q585 226 629 245Q674 265 709 301Q740 337 759 380L967 300Q933 215 871 148Q806 78 719 41Q636 3 546 0H532ZM702 1158L353 965L261 1163L610 1356L702 1158Z"
></glyph
><glyph unicode="&#xea;" horiz-adv-x="1064" d="M522 716Q475 714 431 695Q384 674 350 639Q320 603 301 560Q286 522 284 484L685 660Q655 684 620 699Q574 716 526 716H522ZM532 0Q443 0 360 32Q274 66 208 129Q138 194 101 281Q63 363 60 453V468Q60 558 92 640Q126 726 188 792Q254 862 341 899Q426 937 518 940H528Q617 940 700 907Q785 873 852 810Q932 733 1004 557L374 280Q405 255 440 241Q484 224 529 224H539Q585 226 629 245Q674 265 709 301Q740 337 759 380L967 300Q933 215 871 148Q806 78 719 41Q636 3 546 0H532ZM791 1117L624 1014L533 1142L441 1014L274 1117L533 1455L791 1117Z"
></glyph
><glyph unicode="&#xeb;" horiz-adv-x="1064" d="M522 716Q475 714 431 695Q384 674 350 639Q320 603 301 560Q286 522 284 484L685 660Q655 684 620 699Q574 716 526 716H522ZM532 0Q443 0 360 32Q274 66 208 129Q138 194 101 281Q63 363 60 453V468Q60 558 92 640Q126 726 188 792Q254 862 341 899Q426 937 518 940H528Q617 940 700 907Q785 873 852 810Q932 733 1004 557L374 280Q405 255 440 241Q484 224 529 224H539Q585 226 629 245Q674 265 709 301Q740 337 759 380L967 300Q933 215 871 148Q806 78 719 41Q636 3 546 0H532ZM482 1227V1003H264V1227H482ZM800 1227V1003H582V1227H800Z"
></glyph
><glyph unicode="&#xec;" horiz-adv-x="514" d="M310 0H89V940H310V0ZM106 1384L455 1191L363 993L14 1186L106 1384Z"
></glyph
><glyph unicode="&#xed;" horiz-adv-x="514" d="M310 0H89V940H310V0ZM401 1196L52 1003L-40 1201L309 1394L401 1196Z"
></glyph
><glyph unicode="&#xee;" horiz-adv-x="514" d="M310 0H89V940H310V0ZM459 1117L292 1014L201 1142L109 1014L-58 1117L201 1455L459 1117Z"
></glyph
><glyph unicode="&#xef;" horiz-adv-x="514" d="M310 0H89V940H310V0ZM143 1236V1012H-75V1236H143ZM461 1236V1012H243V1236H461Z"
></glyph
><glyph unicode="&#xf0;" horiz-adv-x="1139" d=""
></glyph
><glyph unicode="&#xf1;" horiz-adv-x="1053" d="M527 940Q719 940 856 803Q993 666 993 473V0H771V473Q771 574 699 646Q627 717 527 717Q426 717 354 646Q282 574 282 473V0H60V473Q60 666 197 803Q334 940 527 940ZM167 1286Q251 1228 334 1228Q348 1228 361 1229Q419 1234 526 1286Q633 1338 691 1343Q704 1344 718 1344Q801 1344 885 1286V1051Q801 1109 718 1109Q704 1109 691 1108Q633 1103 526 1051Q419 999 361 994Q348 993 334 993Q251 993 167 1051V1286Z"
></glyph
><glyph unicode="&#xf2;" horiz-adv-x="1060" d="M429 716T356 644Q285 571 285 470Q285 369 356 296Q429 224 530 224Q631 224 704 296Q776 369 776 470Q776 571 704 644Q631 716 530 716Q429 716 356 644ZM336 0T199 138Q60 276 60 470Q60 664 199 801Q336 940 530 940Q724 940 862 801Q1000 664 1000 470Q1000 276 862 138Q724 0 530 0Q336 0 199 138ZM411 1376L760 1183L668 985L319 1178L411 1376Z"
></glyph
><glyph unicode="&#xf3;" horiz-adv-x="1060" d="M429 716T356 644Q285 571 285 470Q285 369 356 296Q429 224 530 224Q631 224 704 296Q776 369 776 470Q776 571 704 644Q631 716 530 716Q429 716 356 644ZM336 0T199 138Q60 276 60 470Q60 664 199 801Q336 940 530 940Q724 940 862 801Q1000 664 1000 470Q1000 276 862 138Q724 0 530 0Q336 0 199 138ZM736 1182L387 989L295 1187L644 1380L736 1182Z"
></glyph
><glyph unicode="&#xf4;" horiz-adv-x="1060" d="M429 716T356 644Q285 571 285 470Q285 369 356 296Q429 224 530 224Q631 224 704 296Q776 369 776 470Q776 571 704 644Q631 716 530 716Q429 716 356 644ZM336 0T199 138Q60 276 60 470Q60 664 199 801Q336 940 530 940Q724 940 862 801Q1000 664 1000 470Q1000 276 862 138Q724 0 530 0Q336 0 199 138ZM789 1117L622 1014L531 1142L439 1014L272 1117L531 1455L789 1117Z"
></glyph
><glyph unicode="&#xf5;" horiz-adv-x="1060" d="M429 716T356 644Q285 571 285 470Q285 369 356 296Q429 224 530 224Q631 224 704 296Q776 369 776 470Q776 571 704 644Q631 716 530 716Q429 716 356 644ZM336 0T199 138Q60 276 60 470Q60 664 199 801Q336 940 530 940Q724 940 862 801Q1000 664 1000 470Q1000 276 862 138Q724 0 530 0Q336 0 199 138ZM171 1283Q255 1225 338 1225Q352 1225 365 1226Q423 1231 530 1283Q637 1335 695 1340Q708 1341 722 1341Q805 1341 889 1283V1048Q805 1106 722 1106Q708 1106 695 1105Q637 1100 530 1048Q423 996 365 991Q352 990 338 990Q255 990 171 1048V1283Z"
></glyph
><glyph unicode="&#xf6;" horiz-adv-x="1060" d="M429 716T356 644Q285 571 285 470Q285 369 356 296Q429 224 530 224Q631 224 704 296Q776 369 776 470Q776 571 704 644Q631 716 530 716Q429 716 356 644ZM336 0T199 138Q60 276 60 470Q60 664 199 801Q336 940 530 940Q724 940 862 801Q1000 664 1000 470Q1000 276 862 138Q724 0 530 0Q336 0 199 138ZM480 1227V1003H262V1227H480ZM798 1227V1003H580V1227H798Z"
></glyph
><glyph unicode="&#xf7;" horiz-adv-x="806" d="M514 830T481 797Q448 764 402 764Q356 764 323 797Q290 830 290 876Q290 922 323 955Q356 988 402 988Q448 988 481 955Q514 922 514 876Q514 830 481 797ZM514 176T481 143Q448 110 402 110Q356 110 323 143Q290 176 290 222Q290 268 323 301Q356 334 402 334Q448 334 481 301Q514 268 514 222Q514 176 481 143ZM82 655H722V434H82V655Z"
></glyph
><glyph unicode="&#xf8;" horiz-adv-x="1060" d="M525 716Q427 714 356 644Q285 571 285 470Q285 369 356 296Q387 266 422 248L525 716ZM533 224Q632 225 704 296Q776 369 776 470Q776 571 704 644Q673 675 636 692L533 224ZM199 138Q60 276 60 470Q60 664 199 801Q336 940 530 940Q724 940 862 801Q1000 664 1000 470Q1000 276 862 138Q724 0 530 0Q336 0 199 138Z"
></glyph
><glyph unicode="&#xf9;" horiz-adv-x="1048" d="M523 0Q331 0 196 136Q60 271 60 463V940H283V463Q283 363 353 292Q425 221 524 221Q623 221 695 292Q765 363 765 463V940H988V463Q988 271 852 136Q717 0 525 0H523ZM382 1364L731 1171L639 973L290 1166L382 1364Z"
></glyph
><glyph unicode="&#xfa;" horiz-adv-x="1048" d="M523 0Q331 0 196 136Q60 271 60 463V940H283V463Q283 363 353 292Q425 221 524 221Q623 221 695 292Q765 363 765 463V940H988V463Q988 271 852 136Q717 0 525 0H523ZM755 1155L406 962L314 1160L663 1353L755 1155Z"
></glyph
><glyph unicode="&#xfb;" horiz-adv-x="1048" d="M523 0Q331 0 196 136Q60 271 60 463V940H283V463Q283 363 353 292Q425 221 524 221Q623 221 695 292Q765 363 765 463V940H988V463Q988 271 852 136Q717 0 525 0H523ZM783 1117L616 1014L525 1142L433 1014L266 1117L525 1455L783 1117Z"
></glyph
><glyph unicode="&#xfc;" horiz-adv-x="1048" d="M523 0Q331 0 196 136Q60 271 60 463V940H283V463Q283 363 353 292Q425 221 524 221Q623 221 695 292Q765 363 765 463V940H988V463Q988 271 852 136Q717 0 525 0H523ZM474 1237V1013H256V1237H474ZM792 1237V1013H574V1237H792Z"
></glyph
><glyph unicode="&#xfd;" horiz-adv-x="1047" d="M987 940V-95Q987 -401 806 -557Q671 -676 500 -676V-566L498 -455Q582 -453 648 -401Q766 -310 766 -95V68Q654 0 523 0Q332 0 197 135Q60 271 60 462V940H281V462Q281 362 352 291Q424 220 523 220Q623 220 695 291Q766 362 766 462V940H987ZM747 1180L398 987L306 1185L655 1378L747 1180Z"
></glyph
><glyph unicode="&#xfe;" horiz-adv-x="1010" d=""
></glyph
><glyph unicode="&#xff;" horiz-adv-x="1047" d="M987 940V-95Q987 -401 806 -557Q671 -676 500 -676V-566L498 -455Q582 -453 648 -401Q766 -310 766 -95V68Q654 0 523 0Q332 0 197 135Q60 271 60 462V940H281V462Q281 362 352 291Q424 220 523 220Q623 220 695 291Q766 362 766 462V940H987ZM464 1227V1003H246V1227H464ZM782 1227V1003H564V1227H782Z"
></glyph
><glyph unicode="&#x131;" horiz-adv-x="398" d="M310 0H89V940H310V0Z"
></glyph
><glyph unicode="&#x2c6;" horiz-adv-x="661" d="M588 1117L421 1014L330 1142L238 1014L71 1117L330 1455L588 1117Z"
></glyph
><glyph unicode="&#x2c7;" horiz-adv-x="661" d="M330 1014L71 1353L238 1455L330 1328L421 1455L588 1353L330 1014Z"
></glyph
><glyph unicode="&#x2c9;" horiz-adv-x="627" d="M595 1196V1040H60V1196H595Z"
></glyph
><glyph unicode="&#x2d8;" horiz-adv-x="508" d="M380 1247H463Q449 1186 416 1143Q358 1068 256 1068Q153 1068 95 1143Q62 1186 48 1247H131Q136 1230 144 1215Q178 1149 256 1149Q333 1149 367 1215Q375 1230 380 1247Z"
></glyph
><glyph unicode="&#x2d9;" horiz-adv-x="386" d="M150 1430T121 1459Q91 1489 91 1530Q91 1571 121 1600Q150 1630 191 1630Q232 1630 262 1600Q291 1571 291 1530Q291 1489 262 1459Q232 1430 191 1430Q150 1430 121 1459Z"
></glyph
><glyph unicode="&#x2da;" horiz-adv-x="504" d="M210 1359T180 1330Q151 1300 151 1259Q151 1218 180 1188Q210 1159 251 1159Q292 1159 322 1188Q351 1218 351 1259Q351 1300 322 1330Q292 1359 251 1359Q210 1359 180 1330ZM172 1068T116 1124Q60 1180 60 1259Q60 1338 116 1394Q172 1450 251 1450Q330 1450 386 1394Q442 1338 442 1259Q442 1180 386 1124Q330 1068 251 1068Q172 1068 116 1124Z"
></glyph
><glyph unicode="&#x2db;" horiz-adv-x="1024" d=""
></glyph
><glyph unicode="&#x2dc;" horiz-adv-x="834" d="M60 1142Q144 1084 227 1084Q241 1084 254 1085Q312 1090 419 1142Q526 1194 584 1199Q597 1200 611 1200Q694 1200 778 1142V907Q694 965 611 965Q597 965 584 964Q526 959 419 907Q312 855 254 850Q241 849 227 849Q144 849 60 907V1142Z"
></glyph
><glyph unicode="&#x2dd;" horiz-adv-x="717" d="M361 1636L288 1290H70L143 1636H361ZM650 1636L577 1290H359L432 1636H650Z"
></glyph
><glyph unicode="&#x37e;" horiz-adv-x="344" d="M284 643T251 610Q218 577 172 577Q126 577 93 610Q60 643 60 689Q60 735 93 768Q126 801 172 801Q218 801 251 768Q284 735 284 689Q284 643 251 610ZM281 422V157H63V422H281Z"
></glyph
><glyph unicode="&#x2013;" horiz-adv-x="1108" d=""
></glyph
><glyph unicode="&#x2014;" horiz-adv-x="2048" d=""
></glyph
><glyph unicode="&#x2018;" horiz-adv-x="338" d="M278 1637V1372H60V1637H278Z"
></glyph
><glyph unicode="&#x2019;" horiz-adv-x="338" d="M278 1637V1372H60V1637H278Z"
></glyph
><glyph unicode="&#x201a;" horiz-adv-x="557" d=""
></glyph
><glyph unicode="&#x201c;" horiz-adv-x="627" d="M278 1636L295 1290H77L60 1636H278ZM567 1636L584 1290H366L349 1636H567Z"
></glyph
><glyph unicode="&#x201d;" horiz-adv-x="627" d="M295 1636L278 1290H60L77 1636H295ZM584 1636L567 1290H349L366 1636H584Z"
></glyph
><glyph unicode="&#x201e;" horiz-adv-x="910" d=""
></glyph
><glyph unicode="&#x2020;" horiz-adv-x="1014" d=""
></glyph
><glyph unicode="&#x2021;" horiz-adv-x="1014" d=""
></glyph
><glyph unicode="&#x2022;" horiz-adv-x="386" d="M150 410T121 439Q91 469 91 510Q91 551 121 580Q150 610 191 610Q232 610 262 580Q291 551 291 510Q291 469 262 439Q232 410 191 410Q150 410 121 439Z"
></glyph
><glyph unicode="&#x2026;" horiz-adv-x="2048" d=""
></glyph
><glyph unicode="&#x2039;" horiz-adv-x="631" d=""
></glyph
><glyph unicode="&#x203a;" horiz-adv-x="631" d=""
></glyph
><glyph unicode="&#x2044;" horiz-adv-x="342" d=""
></glyph
><glyph unicode="&#x20a3;" horiz-adv-x="1014" d=""
></glyph
><glyph unicode="&#x20a4;" horiz-adv-x="1014" d=""
></glyph
><glyph unicode="&#x20a7;" horiz-adv-x="2028" d=""
></glyph
><glyph unicode="&#x20ac;" horiz-adv-x="1014" d=""
></glyph
><glyph unicode="&#x2116;" horiz-adv-x="2271" d=""
></glyph
><glyph unicode="&#x2122;" horiz-adv-x="1497" d=""
></glyph
><glyph unicode="&#x2202;" horiz-adv-x="1014" d=""
></glyph
><glyph unicode="&#x2206;" horiz-adv-x="1081" d=""
></glyph
><glyph unicode="&#x220f;" horiz-adv-x="1515" d=""
></glyph
><glyph unicode="&#x2211;" horiz-adv-x="1206" d=""
></glyph
><glyph unicode="&#x2212;" horiz-adv-x="1014" d=""
></glyph
><glyph unicode="&#x2215;" horiz-adv-x="342" d=""
></glyph
><glyph unicode="&#x2219;" horiz-adv-x="342" d="M280 585V361H62V585H280Z"
></glyph
><glyph unicode="&#x221a;" horiz-adv-x="1014" d=""
></glyph
><glyph unicode="&#x221e;" horiz-adv-x="1014" d=""
></glyph
><glyph unicode="&#x222b;" horiz-adv-x="665" d=""
></glyph
><glyph unicode="&#x2248;" horiz-adv-x="1014" d=""
></glyph
><glyph unicode="&#x2264;" horiz-adv-x="1014" d=""
></glyph
><glyph unicode="&#x2265;" horiz-adv-x="1014" d=""
></glyph
><glyph unicode="&#xf001;" horiz-adv-x="1073" d=""
></glyph
><glyph unicode="&#xf002;" horiz-adv-x="1081" d=""
></glyph
><glyph unicode="&#xfb01;" horiz-adv-x="1073" d=""
></glyph
><glyph unicode="&#xfb02;" horiz-adv-x="1081" d=""
></glyph
></font
></defs
><g style="font-family: &quot;Alpaca Scarlett Demo&quot;; font-size:50;fill:black"
><text x="20" y="50"
>!&quot;#$%&amp;&#39;()*+,-./0123456789:;&#229;&lt;&gt;?</text
><text x="20" y="100"
>@ABCDEFGHIJKLMNOPQRSTUVWXYZ[\]^_</text
><text x="20" y="150"
>` abcdefghijklmnopqrstuvwxyz|{}~</text
></g
></svg
>